<svg width="21" height="20" viewBox="0 0 21 20" fill="none" xmlns="http://www.w3.org/2000/svg">
<path d="M10.5 0.25C5.12402 0.25 0.75 4.62402 0.75 10C0.75 15.376 5.12402 19.75 10.5 19.75C15.876 19.75 20.25 15.376 20.25 10C20.25 4.62402 15.876 0.25 10.5 0.25ZM10.5 1.75C15.0645 1.75 18.75 5.43555 18.75 10C18.75 14.5645 15.0645 18.25 10.5 18.25C5.93555 18.25 2.25 14.5645 2.25 10C2.25 5.43555 5.93555 1.75 10.5 1.75ZM9.96094 5.19531L5.15625 10L9.96094 14.8047L11.0391 13.75L8.03906 10.75H15.75V9.25H8.03906L11.0391 6.25L9.96094 5.19531Z" fill="#049DBF"/>
</svg>
